{
  "result":[
  {
    "name": "Comedy",
    "type": 1,
    "typeString":"Videos",
    "details":[
      {
        "uploadUserName":"Randeep",
        "UploadedUserId": 3458,
        "UploadedUserImageUrl": "",
        "liked": 20,
        "description": "This a new Video",
        "backgroundImageUrl": "",
        "backgroundVideoUrl":"",
        "thumnailImage":""
      },
      {
        "uploadUserName":"Gurinder",
        "UploadedUserId": 3459,
        "UploadedUserImageUrl": "",
        "liked": 24,
        "description": "This a new Video",
        "backgroundImageUrl": "",
        "backgroundVideoUrl":"",
        "thumnailImage":""
      },
      {
        "uploadUserName":"Gurpreet",
        "UploadedUserId": 3460,
        "UploadedUserImageUrl": "",
        "liked": 21,
        "description": "This a new Video",
        "backgroundImageUrl": "",
        "backgroundVideoUrl":"",
        "thumnailImage":""
      },
      {
        "uploadUserName":"HrishiKesh",
        "UploadedUserId": 3461,
        "UploadedUserImageUrl": "",
        "liked": 10,
        "description": "This a new Video",
        "backgroundImageUrl": "",
        "backgroundVideoUrl":"",
        "thumnailImage":""
      },
      {
        "uploadUserName":"ShanKha",
        "UploadedUserId": 3462,
        "UploadedUserImageUrl": "",
        "liked": 12,
        "description": "This a new Video",
        "backgroundImageUrl": "",
        "backgroundVideoUrl":"",
        "thumnailImage":""
      },
      {
        "uploadUserName":"Kamaljit",
        "UploadedUserId": 3463,
        "UploadedUserImageUrl": "",
        "liked": 90,
        "description": "This a new Video",
        "backgroundImageUrl": "",
        "backgroundVideoUrl":"",
        "thumnailImage":""
      },
      {
        "uploadUserName":"Bhupinder",
        "UploadedUserId": 3464,
        "UploadedUserImageUrl": "",
        "liked": 14,
        "description": "This a new Video",
        "backgroundImageUrl": "",
        "backgroundVideoUrl":"",
        "thumnailImage":""
      },
      {
        "uploadUserName":"Rita",
        "UploadedUserId": 3465,
        "UploadedUserImageUrl": "",
        "liked": 99,
        "description": "This a new Video",
        "backgroundImageUrl": "",
        "backgroundVideoUrl":"",
        "thumnailImage":""
      },
      {
        "uploadUserName":"Yogendra",
        "UploadedUserId": 3466,
        "UploadedUserImageUrl": "",
        "liked": 17,
        "description": "This a new Video",
        "backgroundImageUrl": "",
        "backgroundVideoUrl":"",
        "thumnailImage":""
      },
      {
        "uploadUserName":"Tapas",
        "UploadedUserId": 3467,
        "UploadedUserImageUrl": "",
        "liked": 89,
        "description": "This a new Video",
        "backgroundImageUrl": "",
        "backgroundVideoUrl":"",
        "thumnailImage":""
      },
      {
        "uploadUserName":"Paramita",
        "UploadedUserId": 3468,
        "UploadedUserImageUrl": "",
        "liked": 64,
        "description": "This a new Video",
        "backgroundImageUrl": "",
        "backgroundVideoUrl":"",
        "thumnailImage":""
      }
      ]
  },
  {
    "name": "Dance",
    "type": 2,
    "typeString":"Videos",
    "details":[
      {
        "uploadUserName":"Randeep",
        "UploadedUserId": 3458,
        "UploadedUserImageUrl": "",
        "liked": 20,
        "description": "This a new Video",
        "backgroundImageUrl": "",
        "backgroundVideoUrl":"",
        "thumnailImage":""
      },
      {
        "uploadUserName":"Gurinder",
        "UploadedUserId": 3459,
        "UploadedUserImageUrl": "",
        "liked": 24,
        "description": "This a new Video",
        "backgroundImageUrl": "",
        "backgroundVideoUrl":"",
        "thumnailImage":""
      },
      {
        "uploadUserName":"Gurpreet",
        "UploadedUserId": 3460,
        "UploadedUserImageUrl": "",
        "liked": 21,
        "description": "This a new Video",
        "backgroundImageUrl": "",
        "backgroundVideoUrl":"",
        "thumnailImage":""
      },
      {
        "uploadUserName":"HrishiKesh",
        "UploadedUserId": 3461,
        "UploadedUserImageUrl": "",
        "liked": 10,
        "description": "This a new Video",
        "backgroundImageUrl": "",
        "backgroundVideoUrl":"",
        "thumnailImage":""
      },
      {
        "uploadUserName":"ShanKha",
        "UploadedUserId": 3462,
        "UploadedUserImageUrl": "",
        "liked": 12,
        "description": "This a new Video",
        "backgroundImageUrl": "",
        "backgroundVideoUrl":"",
        "thumnailImage":""
      },
      {
        "uploadUserName":"Kamaljit",
        "UploadedUserId": 3463,
        "UploadedUserImageUrl": "",
        "liked": 90,
        "description": "This a new Video",
        "backgroundImageUrl": "",
        "backgroundVideoUrl":"",
        "thumnailImage":""
      },
      {
        "uploadUserName":"Bhupinder",
        "UploadedUserId": 3464,
        "UploadedUserImageUrl": "",
        "liked": 14,
        "description": "This a new Video",
        "backgroundImageUrl": "",
        "backgroundVideoUrl":"",
        "thumnailImage":""
      },
      {
        "uploadUserName":"Rita",
        "UploadedUserId": 3465,
        "UploadedUserImageUrl": "",
        "liked": 99,
        "description": "This a new Video",
        "backgroundImageUrl": "",
        "backgroundVideoUrl":"",
        "thumnailImage":""
      },
      {
        "uploadUserName":"Yogendra",
        "UploadedUserId": 3466,
        "UploadedUserImageUrl": "",
        "liked": 17,
        "description": "This a new Video",
        "backgroundImageUrl": "",
        "backgroundVideoUrl":"",
        "thumnailImage":""
      },
      {
        "uploadUserName":"Tapas",
        "UploadedUserId": 3467,
        "UploadedUserImageUrl": "",
        "liked": 89,
        "description": "This a new Video",
        "backgroundImageUrl": "",
        "backgroundVideoUrl":"",
        "thumnailImage":""
      },
      {
        "uploadUserName":"Paramita",
        "UploadedUserId": 3468,
        "UploadedUserImageUrl": "",
        "liked": 64,
        "description": "This a new Video",
        "backgroundImageUrl": "",
        "backgroundVideoUrl":"",
        "thumnailImage":""
      }
      ]
  },
  {
    "name": "Fashion",
    "type": 1,
    "typeString":"Videos",
    "details":[
      {
        "uploadUserName":"Randeep",
        "UploadedUserId": 3458,
        "UploadedUserImageUrl": "",
        "liked": 20,
        "description": "This a new Video",
        "backgroundImageUrl": "",
        "backgroundVideoUrl":"",
        "thumnailImage":""
      },
      {
        "uploadUserName":"Gurinder",
        "UploadedUserId": 3459,
        "UploadedUserImageUrl": "",
        "liked": 24,
        "description": "This a new Video",
        "backgroundImageUrl": "",
        "backgroundVideoUrl":"",
        "thumnailImage":""
      },
      {
        "uploadUserName":"Gurpreet",
        "UploadedUserId": 3460,
        "UploadedUserImageUrl": "",
        "liked": 21,
        "description": "This a new Video",
        "backgroundImageUrl": "",
        "backgroundVideoUrl":"",
        "thumnailImage":""
      },
      {
        "uploadUserName":"HrishiKesh",
        "UploadedUserId": 3461,
        "UploadedUserImageUrl": "",
        "liked": 10,
        "description": "This a new Video",
        "backgroundImageUrl": "",
        "backgroundVideoUrl":"",
        "thumnailImage":""
      },
      {
        "uploadUserName":"ShanKha",
        "UploadedUserId": 3462,
        "UploadedUserImageUrl": "",
        "liked": 12,
        "description": "This a new Video",
        "backgroundImageUrl": "",
        "backgroundVideoUrl":"",
        "thumnailImage":""
      },
      {
        "uploadUserName":"Kamaljit",
        "UploadedUserId": 3463,
        "UploadedUserImageUrl": "",
        "liked": 90,
        "description": "This a new Video",
        "backgroundImageUrl": "",
        "backgroundVideoUrl":"",
        "thumnailImage":""
      },
      {
        "uploadUserName":"Bhupinder",
        "UploadedUserId": 3464,
        "UploadedUserImageUrl": "",
        "liked": 14,
        "description": "This a new Video",
        "backgroundImageUrl": "",
        "backgroundVideoUrl":"",
        "thumnailImage":""
      },
      {
        "uploadUserName":"Rita",
        "UploadedUserId": 3465,
        "UploadedUserImageUrl": "",
        "liked": 99,
        "description": "This a new Video",
        "backgroundImageUrl": "",
        "backgroundVideoUrl":"",
        "thumnailImage":""
      },
      {
        "uploadUserName":"Yogendra",
        "UploadedUserId": 3466,
        "UploadedUserImageUrl": "",
        "liked": 17,
        "description": "This a new Video",
        "backgroundImageUrl": "",
        "backgroundVideoUrl":"",
        "thumnailImage":""
      },
      {
        "uploadUserName":"Tapas",
        "UploadedUserId": 3467,
        "UploadedUserImageUrl": "",
        "liked": 89,
        "description": "This a new Video",
        "backgroundImageUrl": "",
        "backgroundVideoUrl":"",
        "thumnailImage":""
      },
      {
        "uploadUserName":"Paramita",
        "UploadedUserId": 3468,
        "UploadedUserImageUrl": "",
        "liked": 64,
        "description": "This a new Video",
        "backgroundImageUrl": "",
        "backgroundVideoUrl":"",
        "thumnailImage":""
      }
      ]
  },
  {
    "name": "Animation",
    "type": 2,
    "typeString":"Videos",
    "details":[
      {
        "uploadUserName":"Randeep",
        "UploadedUserId": 3458,
        "UploadedUserImageUrl": "",
        "liked": 20,
        "description": "This a new Video",
        "backgroundImageUrl": "",
        "backgroundVideoUrl":"",
        "thumnailImage":""
      },
      {
        "uploadUserName":"Gurinder",
        "UploadedUserId": 3459,
        "UploadedUserImageUrl": "",
        "liked": 24,
        "description": "This a new Video",
        "backgroundImageUrl": "",
        "backgroundVideoUrl":"",
        "thumnailImage":""
      },
      {
        "uploadUserName":"Gurpreet",
        "UploadedUserId": 3460,
        "UploadedUserImageUrl": "",
        "liked": 21,
        "description": "This a new Video",
        "backgroundImageUrl": "",
        "backgroundVideoUrl":"",
        "thumnailImage":""
      },
      {
        "uploadUserName":"HrishiKesh",
        "UploadedUserId": 3461,
        "UploadedUserImageUrl": "",
        "liked": 10,
        "description": "This a new Video",
        "backgroundImageUrl": "",
        "backgroundVideoUrl":"",
        "thumnailImage":""
      },
      {
        "uploadUserName":"ShanKha",
        "UploadedUserId": 3462,
        "UploadedUserImageUrl": "",
        "liked": 12,
        "description": "This a new Video",
        "backgroundImageUrl": "",
        "backgroundVideoUrl":"",
        "thumnailImage":""
      },
      {
        "uploadUserName":"Kamaljit",
        "UploadedUserId": 3463,
        "UploadedUserImageUrl": "",
        "liked": 90,
        "description": "This a new Video",
        "backgroundImageUrl": "",
        "backgroundVideoUrl":"",
        "thumnailImage":""
      },
      {
        "uploadUserName":"Bhupinder",
        "UploadedUserId": 3464,
        "UploadedUserImageUrl": "",
        "liked": 14,
        "description": "This a new Video",
        "backgroundImageUrl": "",
        "backgroundVideoUrl":"",
        "thumnailImage":""
      },
      {
        "uploadUserName":"Rita",
        "UploadedUserId": 3465,
        "UploadedUserImageUrl": "",
        "liked": 99,
        "description": "This a new Video",
        "backgroundImageUrl": "",
        "backgroundVideoUrl":"",
        "thumnailImage":""
      },
      {
        "uploadUserName":"Yogendra",
        "UploadedUserId": 3466,
        "UploadedUserImageUrl": "",
        "liked": 17,
        "description": "This a new Video",
        "backgroundImageUrl": "",
        "backgroundVideoUrl":"",
        "thumnailImage":""
      },
      {
        "uploadUserName":"Tapas",
        "UploadedUserId": 3467,
        "UploadedUserImageUrl": "",
        "liked": 89,
        "description": "This a new Video",
        "backgroundImageUrl": "",
        "backgroundVideoUrl":"",
        "thumnailImage":""
      },
      {
        "uploadUserName":"Paramita",
        "UploadedUserId": 3468,
        "UploadedUserImageUrl": "",
        "liked": 64,
        "description": "This a new Video",
        "backgroundImageUrl": "",
        "backgroundVideoUrl":"",
        "thumnailImage":""
      }
      ]
  },
  {
    "name": "Kids",
    "type": 1,
    "typeString":"Videos",
    "details":[
      {
        "uploadUserName":"Randeep",
        "UploadedUserId": 3458,
        "UploadedUserImageUrl": "",
        "liked": 20,
        "description": "This a new Video",
        "backgroundImageUrl": "",
        "backgroundVideoUrl":"",
        "thumnailImage":""
      },
      {
        "uploadUserName":"Gurinder",
        "UploadedUserId": 3459,
        "UploadedUserImageUrl": "",
        "liked": 24,
        "description": "This a new Video",
        "backgroundImageUrl": "",
        "backgroundVideoUrl":"",
        "thumnailImage":""
      },
      {
        "uploadUserName":"Gurpreet",
        "UploadedUserId": 3460,
        "UploadedUserImageUrl": "",
        "liked": 21,
        "description": "This a new Video",
        "backgroundImageUrl": "",
        "backgroundVideoUrl":"",
        "thumnailImage":""
      },
      {
        "uploadUserName":"HrishiKesh",
        "UploadedUserId": 3461,
        "UploadedUserImageUrl": "",
        "liked": 10,
        "description": "This a new Video",
        "backgroundImageUrl": "",
        "backgroundVideoUrl":"",
        "thumnailImage":""
      },
      {
        "uploadUserName":"ShanKha",
        "UploadedUserId": 3462,
        "UploadedUserImageUrl": "",
        "liked": 12,
        "description": "This a new Video",
        "backgroundImageUrl": "",
        "backgroundVideoUrl":"",
        "thumnailImage":""
      },
      {
        "uploadUserName":"Kamaljit",
        "UploadedUserId": 3463,
        "UploadedUserImageUrl": "",
        "liked": 90,
        "description": "This a new Video",
        "backgroundImageUrl": "",
        "backgroundVideoUrl":"",
        "thumnailImage":""
      },
      {
        "uploadUserName":"Bhupinder",
        "UploadedUserId": 3464,
        "UploadedUserImageUrl": "",
        "liked": 14,
        "description": "This a new Video",
        "backgroundImageUrl": "",
        "backgroundVideoUrl":"",
        "thumnailImage":""
      },
      {
        "uploadUserName":"Rita",
        "UploadedUserId": 3465,
        "UploadedUserImageUrl": "",
        "liked": 99,
        "description": "This a new Video",
        "backgroundImageUrl": "",
        "backgroundVideoUrl":"",
        "thumnailImage":""
      },
      {
        "uploadUserName":"Yogendra",
        "UploadedUserId": 3466,
        "UploadedUserImageUrl": "",
        "liked": 17,
        "description": "This a new Video",
        "backgroundImageUrl": "",
        "backgroundVideoUrl":"",
        "thumnailImage":""
      },
      {
        "uploadUserName":"Tapas",
        "UploadedUserId": 3467,
        "UploadedUserImageUrl": "",
        "liked": 89,
        "description": "This a new Video",
        "backgroundImageUrl": "",
        "backgroundVideoUrl":"",
        "thumnailImage":""
      },
      {
        "uploadUserName":"Paramita",
        "UploadedUserId": 3468,
        "UploadedUserImageUrl": "",
        "liked": 64,
        "description": "This a new Video",
        "backgroundImageUrl": "",
        "backgroundVideoUrl":"",
        "thumnailImage":""
      }
      ]
  },
  {
    "name": "Cricket",
    "type": 2,
    "typeString":"Videos",
    "details":[
      {
        "uploadUserName":"Randeep",
        "UploadedUserId": 3458,
        "UploadedUserImageUrl": "",
        "liked": 20,
        "description": "This a new Video",
        "backgroundImageUrl": "",
        "backgroundVideoUrl":"",
        "thumnailImage":""
      },
      {
        "uploadUserName":"Gurinder",
        "UploadedUserId": 3459,
        "UploadedUserImageUrl": "",
        "liked": 24,
        "description": "This a new Video",
        "backgroundImageUrl": "",
        "backgroundVideoUrl":"",
        "thumnailImage":""
      },
      {
        "uploadUserName":"Gurpreet",
        "UploadedUserId": 3460,
        "UploadedUserImageUrl": "",
        "liked": 21,
        "description": "This a new Video",
        "backgroundImageUrl": "",
        "backgroundVideoUrl":"",
        "thumnailImage":""
      },
      {
        "uploadUserName":"HrishiKesh",
        "UploadedUserId": 3461,
        "UploadedUserImageUrl": "",
        "liked": 10,
        "description": "This a new Video",
        "backgroundImageUrl": "",
        "backgroundVideoUrl":"",
        "thumnailImage":""
      },
      {
        "uploadUserName":"ShanKha",
        "UploadedUserId": 3462,
        "UploadedUserImageUrl": "",
        "liked": 12,
        "description": "This a new Video",
        "backgroundImageUrl": "",
        "backgroundVideoUrl":"",
        "thumnailImage":""
      },
      {
        "uploadUserName":"Kamaljit",
        "UploadedUserId": 3463,
        "UploadedUserImageUrl": "",
        "liked": 90,
        "description": "This a new Video",
        "backgroundImageUrl": "",
        "backgroundVideoUrl":"",
        "thumnailImage":""
      },
      {
        "uploadUserName":"Bhupinder",
        "UploadedUserId": 3464,
        "UploadedUserImageUrl": "",
        "liked": 14,
        "description": "This a new Video",
        "backgroundImageUrl": "",
        "backgroundVideoUrl":"",
        "thumnailImage":""
      },
      {
        "uploadUserName":"Rita",
        "UploadedUserId": 3465,
        "UploadedUserImageUrl": "",
        "liked": 99,
        "description": "This a new Video",
        "backgroundImageUrl": "",
        "backgroundVideoUrl":"",
        "thumnailImage":""
      },
      {
        "uploadUserName":"Yogendra",
        "UploadedUserId": 3466,
        "UploadedUserImageUrl": "",
        "liked": 17,
        "description": "This a new Video",
        "backgroundImageUrl": "",
        "backgroundVideoUrl":"",
        "thumnailImage":""
      },
      {
        "uploadUserName":"Tapas",
        "UploadedUserId": 3467,
        "UploadedUserImageUrl": "",
        "liked": 89,
        "description": "This a new Video",
        "backgroundImageUrl": "",
        "backgroundVideoUrl":"",
        "thumnailImage":""
      },
      {
        "uploadUserName":"Paramita",
        "UploadedUserId": 3468,
        "UploadedUserImageUrl": "",
        "liked": 64,
        "description": "This a new Video",
        "backgroundImageUrl": "",
        "backgroundVideoUrl":"",
        "thumnailImage":""
      }
      ]
  }
  ]
}
